Tab1: 

----

Title: Hallo Festspiele

----

Checkbox: 0

----

Checkbox2: 1

----

Url: http://www.hallo-festspiele.de/de/program

----

Project: Website Hallo Festspiele

----

Client: Viele Grüße von e.V.

----

Year: 2017

----

Type: 

----

Service: Concept, Identity, Webdesign, Webdevelopment

----

Contributors: Jana Reddemann

----

Tab2: 

----

Clientdescription: 

----

Graphicdescription: 

----

Techdescription: 

----

Tab3: 

----

Mainimage: 

----

Backgroundimage: 

----

Postimage: bildschirmfoto-2018-01-26-um-16.33.53.png,bildschirmfoto-2018-01-26-um-16.34.08.png,bildschirmfoto-2018-01-26-um-16.34.18.png,bildschirmfoto-2018-01-26-um-16.34.44.png,bildschirmfoto-2018-01-26-um-16.34.54.png,bildschirmfoto-2018-01-26-um-16.35.51.png,bildschirmfoto-2018-01-26-um-16.35.58.png

----

Tab4: 

----

Cover-image: 

----

Subtitle: 

----

Subdescription: 